%YAML 1.1
%TAG !u! tag:unity3d.com,2011:
--- !u!74 &7400000
AnimationClip:
  m_ObjectHideFlags: 0
  m_PrefabParentObject: {fileID: 0}
  m_PrefabInternal: {fileID: 0}
  m_Name: SpringCageLaunch
  serializedVersion: 6
  m_Legacy: 0
  m_Compressed: 0
  m_UseHighQualityCurve: 1
  m_RotationCurves: []
  m_CompressedRotationCurves: []
  m_EulerCurves: []
  m_PositionCurves:
  - curve:
      serializedVersion: 2
      m_Curve:
      - time: 0
        value: {x: 0, y: 3.18, z: 0}
        inSlope: {x: 0, y: Infinity, z: 0}
        outSlope: {x: 0, y: Infinity, z: 0}
        tangentMode: 0
      - time: 0.06666667
        value: {x: 0, y: 3.13, z: 0}
        inSlope: {x: 0, y: Infinity, z: 0}
        outSlope: {x: 0, y: Infinity, z: 0}
        tangentMode: 0
      - time: 0.13333334
        value: {x: 0, y: 6.16, z: 0}
        inSlope: {x: 0, y: Infinity, z: 0}
        outSlope: {x: 0, y: Infinity, z: 0}
        tangentMode: 0
      - time: 0.2
        value: {x: 0, y: 6.19, z: 0}
        inSlope: {x: 0, y: Infinity, z: 0}
        outSlope: {x: 0, y: Infinity, z: 0}
        tangentMode: 0
      - time: 0.26666668
        value: {x: 0, y: 8.16, z: 0}
        inSlope: {x: 0, y: Infinity, z: 0}
        outSlope: {x: 0, y: Infinity, z: 0}
        tangentMode: 0
      - time: 0.33333334
        value: {x: 0, y: 8.05, z: 0}
        inSlope: {x: 0, y: Infinity, z: 0}
        outSlope: {x: 0, y: Infinity, z: 0}
        tangentMode: 0
      - time: 0.4
        value: {x: 0, y: 8.02, z: 0}
        inSlope: {x: 0, y: Infinity, z: 0}
        outSlope: {x: 0, y: Infinity, z: 0}
        tangentMode: 0
      - time: 0.46666667
        value: {x: 0, y: 8.06, z: 0}
        inSlope: {x: 0, y: Infinity, z: 0}
        outSlope: {x: 0, y: Infinity, z: 0}
        tangentMode: 0
      - time: 0.53333336
        value: {x: 0, y: 6.21, z: 0}
        inSlope: {x: 0, y: Infinity, z: 0}
        outSlope: {x: 0, y: Infinity, z: 0}
        tangentMode: 0
      - time: 0.6
        value: {x: 0, y: 6.21, z: 0}
        inSlope: {x: 0, y: Infinity, z: 0}
        outSlope: {x: 0, y: Infinity, z: 0}
        tangentMode: 0
      - time: 0.6666667
        value: {x: 0, y: 3.06, z: 0}
        inSlope: {x: 0, y: Infinity, z: 0}
        outSlope: {x: 0, y: Infinity, z: 0}
        tangentMode: 0
      - time: 0.73333335
        value: {x: 0, y: 3.2, z: 0}
        inSlope: {x: 0, y: Infinity, z: 0}
        outSlope: {x: 0, y: Infinity, z: 0}
        tangentMode: 0
      - time: 0.8
        value: {x: 0, y: 3.17, z: 0}
        inSlope: {x: 0, y: Infinity, z: 0}
        outSlope: {x: 0, y: Infinity, z: 0}
        tangentMode: 0
      m_PreInfinity: 2
      m_PostInfinity: 2
      m_RotationOrder: 4
    path: Cage
  - curve:
      serializedVersion: 2
      m_Curve:
      - time: 0
        value: {x: 0.07, y: 0.66, z: 0}
        inSlope: {x: 0, y: 0, z: 0}
        outSlope: {x: 0, y: -0, z: 0}
        tangentMode: 0
      - time: 0.33333334
        value: {x: 0.07, y: 0.66, z: 0}
        inSlope: {x: 0, y: 0.34057394, z: 0}
        outSlope: {x: 0, y: 37.157143, z: 0}
        tangentMode: 0
      - time: 0.46666667
        value: {x: 0.07, y: 5.6142855, z: 0}
        inSlope: {x: 0, y: 37.157143, z: 0}
        outSlope: {x: 0, y: 62.83833, z: 0}
        tangentMode: 0
      - time: 0.53333336
        value: {x: 0.07, y: 10, z: 0}
        inSlope: {x: 0, y: 67.57909, z: 0}
        outSlope: {x: 0, y: 25.993214, z: 0}
        tangentMode: 0
      - time: 0.6
        value: {x: 0.07, y: 11.817466, z: 0}
        inSlope: {x: 0, y: 25.32422, z: 0}
        outSlope: {x: 0, y: 89.99697, z: 0}
        tangentMode: 0
      - time: 0.6666667
        value: {x: 0.07, y: 18, z: 0}
        inSlope: {x: 0, y: 66.31793, z: 0}
        outSlope: {x: 0, y: 16.715406, z: 0}
        tangentMode: 0
      - time: 0.8
        value: {x: 0.07, y: 20, z: 0}
        inSlope: {x: 0, y: 16.435333, z: 0}
        outSlope: {x: 0, y: 37.157143, z: 0}
        tangentMode: 0
      m_PreInfinity: 2
      m_PostInfinity: 2
      m_RotationOrder: 4
    path: Cage/target
  m_ScaleCurves: []
  m_FloatCurves:
  - curve:
      serializedVersion: 2
      m_Curve:
      - time: 0
        value: 1
        inSlope: Infinity
        outSlope: Infinity
        tangentMode: 31
      - time: 0.73333335
        value: 1
        inSlope: Infinity
        outSlope: Infinity
        tangentMode: 31
      - time: 0.8
        value: 0
        inSlope: Infinity
        outSlope: Infinity
        tangentMode: 31
      m_PreInfinity: 2
      m_PostInfinity: 2
      m_RotationOrder: 4
    attribute: m_IsActive
    path: Cage/target
    classID: 1
    script: {fileID: 0}
  m_PPtrCurves:
  - curve:
    - time: 0
      value: {fileID: 21300000, guid: 2e5df78170de5f84e86a863451484d4c, type: 3}
    - time: 0.06666667
      value: {fileID: 21300002, guid: 2e5df78170de5f84e86a863451484d4c, type: 3}
    - time: 0.13333334
      value: {fileID: 21300004, guid: 2e5df78170de5f84e86a863451484d4c, type: 3}
    - time: 0.2
      value: {fileID: 21300006, guid: 2e5df78170de5f84e86a863451484d4c, type: 3}
    - time: 0.26666668
      value: {fileID: 21300008, guid: 2e5df78170de5f84e86a863451484d4c, type: 3}
    - time: 0.33333334
      value: {fileID: 21300010, guid: 2e5df78170de5f84e86a863451484d4c, type: 3}
    - time: 0.4
      value: {fileID: 21300012, guid: 2e5df78170de5f84e86a863451484d4c, type: 3}
    - time: 0.46666667
      value: {fileID: 21300014, guid: 2e5df78170de5f84e86a863451484d4c, type: 3}
    - time: 0.53333336
      value: {fileID: 21300006, guid: 2e5df78170de5f84e86a863451484d4c, type: 3}
    - time: 0.6
      value: {fileID: 21300004, guid: 2e5df78170de5f84e86a863451484d4c, type: 3}
    - time: 0.6666667
      value: {fileID: 21300002, guid: 2e5df78170de5f84e86a863451484d4c, type: 3}
    - time: 0.73333335
      value: {fileID: 21300000, guid: 2e5df78170de5f84e86a863451484d4c, type: 3}
    attribute: m_Sprite
    path: 
    classID: 212
    script: {fileID: 0}
  - curve:
    - time: 0
      value: {fileID: 21300016, guid: 2e5df78170de5f84e86a863451484d4c, type: 3}
    - time: 0.06666667
      value: {fileID: 21300018, guid: 2e5df78170de5f84e86a863451484d4c, type: 3}
    - time: 0.13333334
      value: {fileID: 21300020, guid: 2e5df78170de5f84e86a863451484d4c, type: 3}
    - time: 0.2
      value: {fileID: 21300022, guid: 2e5df78170de5f84e86a863451484d4c, type: 3}
    - time: 0.26666668
      value: {fileID: 21300016, guid: 2e5df78170de5f84e86a863451484d4c, type: 3}
    - time: 0.33333334
      value: {fileID: 21300028, guid: 2e5df78170de5f84e86a863451484d4c, type: 3}
    - time: 0.4
      value: {fileID: 21300030, guid: 2e5df78170de5f84e86a863451484d4c, type: 3}
    - time: 0.46666667
      value: {fileID: 21300032, guid: 2e5df78170de5f84e86a863451484d4c, type: 3}
    - time: 0.53333336
      value: {fileID: 21300034, guid: 2e5df78170de5f84e86a863451484d4c, type: 3}
    - time: 0.6
      value: {fileID: 21300028, guid: 2e5df78170de5f84e86a863451484d4c, type: 3}
    - time: 0.6666667
      value: {fileID: 21300030, guid: 2e5df78170de5f84e86a863451484d4c, type: 3}
    - time: 0.73333335
      value: {fileID: 21300032, guid: 2e5df78170de5f84e86a863451484d4c, type: 3}
    attribute: m_Sprite
    path: Cage
    classID: 212
    script: {fileID: 0}
  m_SampleRate: 15
  m_WrapMode: 0
  m_Bounds:
    m_Center: {x: 0, y: 0, z: 0}
    m_Extent: {x: 0, y: 0, z: 0}
  m_ClipBindingConstant:
    genericBindings:
    - path: 4136952175
      attribute: 1
      script: {fileID: 0}
      classID: 4
      customType: 0
      isPPtrCurve: 0
    - path: 1951999188
      attribute: 1
      script: {fileID: 0}
      classID: 4
      customType: 0
      isPPtrCurve: 0
    - path: 1951999188
      attribute: 2086281974
      script: {fileID: 0}
      classID: 1
      customType: 0
      isPPtrCurve: 0
    - path: 0
      attribute: 0
      script: {fileID: 0}
      classID: 212
      customType: 23
      isPPtrCurve: 1
    - path: 4136952175
      attribute: 0
      script: {fileID: 0}
      classID: 212
      customType: 23
      isPPtrCurve: 1
    pptrCurveMapping:
    - {fileID: 21300000, guid: 2e5df78170de5f84e86a863451484d4c, type: 3}
    - {fileID: 21300002, guid: 2e5df78170de5f84e86a863451484d4c, type: 3}
    - {fileID: 21300004, guid: 2e5df78170de5f84e86a863451484d4c, type: 3}
    - {fileID: 21300006, guid: 2e5df78170de5f84e86a863451484d4c, type: 3}
    - {fileID: 21300008, guid: 2e5df78170de5f84e86a863451484d4c, type: 3}
    - {fileID: 21300010, guid: 2e5df78170de5f84e86a863451484d4c, type: 3}
    - {fileID: 21300012, guid: 2e5df78170de5f84e86a863451484d4c, type: 3}
    - {fileID: 21300014, guid: 2e5df78170de5f84e86a863451484d4c, type: 3}
    - {fileID: 21300006, guid: 2e5df78170de5f84e86a863451484d4c, type: 3}
    - {fileID: 21300004, guid: 2e5df78170de5f84e86a863451484d4c, type: 3}
    - {fileID: 21300002, guid: 2e5df78170de5f84e86a863451484d4c, type: 3}
    - {fileID: 21300000, guid: 2e5df78170de5f84e86a863451484d4c, type: 3}
    - {fileID: 21300016, guid: 2e5df78170de5f84e86a863451484d4c, type: 3}
    - {fileID: 21300018, guid: 2e5df78170de5f84e86a863451484d4c, type: 3}
    - {fileID: 21300020, guid: 2e5df78170de5f84e86a863451484d4c, type: 3}
    - {fileID: 21300022, guid: 2e5df78170de5f84e86a863451484d4c, type: 3}
    - {fileID: 21300016, guid: 2e5df78170de5f84e86a863451484d4c, type: 3}
    - {fileID: 21300028, guid: 2e5df78170de5f84e86a863451484d4c, type: 3}
    - {fileID: 21300030, guid: 2e5df78170de5f84e86a863451484d4c, type: 3}
    - {fileID: 21300032, guid: 2e5df78170de5f84e86a863451484d4c, type: 3}
    - {fileID: 21300034, guid: 2e5df78170de5f84e86a863451484d4c, type: 3}
    - {fileID: 21300028, guid: 2e5df78170de5f84e86a863451484d4c, type: 3}
    - {fileID: 21300030, guid: 2e5df78170de5f84e86a863451484d4c, type: 3}
    - {fileID: 21300032, guid: 2e5df78170de5f84e86a863451484d4c, type: 3}
  m_AnimationClipSettings:
    serializedVersion: 2
    m_AdditiveReferencePoseClip: {fileID: 0}
    m_AdditiveReferencePoseTime: 0
    m_StartTime: 0
    m_StopTime: 0.8
    m_OrientationOffsetY: 0
    m_Level: 0
    m_CycleOffset: 0
    m_HasAdditiveReferencePose: 0
    m_LoopTime: 1
    m_LoopBlend: 0
    m_LoopBlendOrientation: 0
    m_LoopBlendPositionY: 0
    m_LoopBlendPositionXZ: 0
    m_KeepOriginalOrientation: 0
    m_KeepOriginalPositionY: 1
    m_KeepOriginalPositionXZ: 0
    m_HeightFromFeet: 0
    m_Mirror: 0
  m_EditorCurves:
  - curve:
      serializedVersion: 2
      m_Curve:
      - time: 0
        value: 0
        inSlope: 0
        outSlope: 0
        tangentMode: 10
      - time: 0.06666667
        value: 0
        inSlope: 0
        outSlope: 0
        tangentMode: 10
      - time: 0.13333334
        value: 0
        inSlope: 0
        outSlope: 0
        tangentMode: 10
      - time: 0.2
        value: 0
        inSlope: 0
        outSlope: 0
        tangentMode: 10
      - time: 0.26666668
        value: 0
        inSlope: 0
        outSlope: 0
        tangentMode: 10
      - time: 0.33333334
        value: 0
        inSlope: 0
        outSlope: 0
        tangentMode: 10
      - time: 0.4
        value: 0
        inSlope: 0
        outSlope: 0
        tangentMode: 10
      - time: 0.46666667
        value: 0
        inSlope: 0
        outSlope: 0
        tangentMode: 10
      - time: 0.53333336
        value: 0
        inSlope: 0
        outSlope: 0
        tangentMode: 10
      - time: 0.6
        value: 0
        inSlope: 0
        outSlope: 0
        tangentMode: 10
      - time: 0.6666667
        value: 0
        inSlope: 0
        outSlope: 0
        tangentMode: 10
      - time: 0.73333335
        value: 0
        inSlope: 0
        outSlope: 0
        tangentMode: 10
      - time: 0.8
        value: 0
        inSlope: 0
        outSlope: 0
        tangentMode: 10
      m_PreInfinity: 2
      m_PostInfinity: 2
      m_RotationOrder: 4
    attribute: m_LocalPosition.x
    path: Cage
    classID: 4
    script: {fileID: 0}
  - curve:
      serializedVersion: 2
      m_Curve:
      - time: 0
        value: 3.18
        inSlope: Infinity
        outSlope: Infinity
        tangentMode: 31
      - time: 0.06666667
        value: 3.13
        inSlope: Infinity
        outSlope: Infinity
        tangentMode: 31
      - time: 0.13333334
        value: 6.16
        inSlope: Infinity
        outSlope: Infinity
        tangentMode: 31
      - time: 0.2
        value: 6.19
        inSlope: Infinity
        outSlope: Infinity
        tangentMode: 31
      - time: 0.26666668
        value: 8.16
        inSlope: Infinity
        outSlope: Infinity
        tangentMode: 31
      - time: 0.33333334
        value: 8.05
        inSlope: Infinity
        outSlope: Infinity
        tangentMode: 31
      - time: 0.4
        value: 8.02
        inSlope: Infinity
        outSlope: Infinity
        tangentMode: 31
      - time: 0.46666667
        value: 8.06
        inSlope: Infinity
        outSlope: Infinity
        tangentMode: 31
      - time: 0.53333336
        value: 6.21
        inSlope: Infinity
        outSlope: Infinity
        tangentMode: 31
      - time: 0.6
        value: 6.21
        inSlope: Infinity
        outSlope: Infinity
        tangentMode: 31
      - time: 0.6666667
        value: 3.06
        inSlope: Infinity
        outSlope: Infinity
        tangentMode: 31
      - time: 0.73333335
        value: 3.2
        inSlope: Infinity
        outSlope: Infinity
        tangentMode: 31
      - time: 0.8
        value: 3.17
        inSlope: Infinity
        outSlope: Infinity
        tangentMode: 31
      m_PreInfinity: 2
      m_PostInfinity: 2
      m_RotationOrder: 4
    attribute: m_LocalPosition.y
    path: Cage
    classID: 4
    script: {fileID: 0}
  - curve:
      serializedVersion: 2
      m_Curve:
      - time: 0
        value: 0
        inSlope: 0
        outSlope: 0
        tangentMode: 10
      - time: 0.06666667
        value: 0
        inSlope: 0
        outSlope: 0
        tangentMode: 10
      - time: 0.13333334
        value: 0
        inSlope: 0
        outSlope: 0
        tangentMode: 10
      - time: 0.2
        value: 0
        inSlope: 0
        outSlope: 0
        tangentMode: 10
      - time: 0.26666668
        value: 0
        inSlope: 0
        outSlope: 0
        tangentMode: 10
      - time: 0.33333334
        value: 0
        inSlope: 0
        outSlope: 0
        tangentMode: 10
      - time: 0.4
        value: 0
        inSlope: 0
        outSlope: 0
        tangentMode: 10
      - time: 0.46666667
        value: 0
        inSlope: 0
        outSlope: 0
        tangentMode: 10
      - time: 0.53333336
        value: 0
        inSlope: 0
        outSlope: 0
        tangentMode: 10
      - time: 0.6
        value: 0
        inSlope: 0
        outSlope: 0
        tangentMode: 10
      - time: 0.6666667
        value: 0
        inSlope: 0
        outSlope: 0
        tangentMode: 10
      - time: 0.73333335
        value: 0
        inSlope: 0
        outSlope: 0
        tangentMode: 10
      - time: 0.8
        value: 0
        inSlope: 0
        outSlope: 0
        tangentMode: 10
      m_PreInfinity: 2
      m_PostInfinity: 2
      m_RotationOrder: 4
    attribute: m_LocalPosition.z
    path: Cage
    classID: 4
    script: {fileID: 0}
  - curve:
      serializedVersion: 2
      m_Curve:
      - time: 0
        value: 0.07
        inSlope: 0
        outSlope: 0
        tangentMode: 10
      - time: 0.33333334
        value: 0.07
        inSlope: 0
        outSlope: 0
        tangentMode: 10
      - time: 0.46666667
        value: 0.07
        inSlope: 0
        outSlope: 0
        tangentMode: 10
      - time: 0.6
        value: 0.07
        inSlope: 0
        outSlope: 0
        tangentMode: 10
      - time: 0.8
        value: 0.07
        inSlope: 0
        outSlope: 0
        tangentMode: 10
      m_PreInfinity: 2
      m_PostInfinity: 2
      m_RotationOrder: 4
    attribute: m_LocalPosition.x
    path: Cage/target
    classID: 4
    script: {fileID: 0}
  - curve:
      serializedVersion: 2
      m_Curve:
      - time: 0
        value: 0.66
        inSlope: 0
        outSlope: -0
        tangentMode: 17
      - time: 0.33333334
        value: 0.66
        inSlope: 0.34057394
        outSlope: 37.157143
        tangentMode: 17
      - time: 0.46666667
        value: 5.6142855
        inSlope: 37.157143
        outSlope: 62.83833
        tangentMode: 5
      - time: 0.53333336
        value: 10
        inSlope: 67.57909
        outSlope: 25.993214
        tangentMode: 1
      - time: 0.6
        value: 11.817466
        inSlope: 25.32422
        outSlope: 89.99697
        tangentMode: 1
      - time: 0.6666667
        value: 18
        inSlope: 66.31793
        outSlope: 16.715406
        tangentMode: 1
      - time: 0.8
        value: 20
        inSlope: 16.435333
        outSlope: 37.157143
        tangentMode: 17
      m_PreInfinity: 2
      m_PostInfinity: 2
      m_RotationOrder: 4
    attribute: m_LocalPosition.y
    path: Cage/target
    classID: 4
    script: {fileID: 0}
  - curve:
      serializedVersion: 2
      m_Curve:
      - time: 0
        value: 0
        inSlope: 0
        outSlope: 0
        tangentMode: 10
      - time: 0.33333334
        value: 0
        inSlope: 0
        outSlope: 0
        tangentMode: 10
      - time: 0.46666667
        value: 0
        inSlope: 0
        outSlope: 0
        tangentMode: 10
      - time: 0.6
        value: 0
        inSlope: 0
        outSlope: 0
        tangentMode: 10
      - time: 0.8
        value: 0
        inSlope: 0
        outSlope: 0
        tangentMode: 10
      m_PreInfinity: 2
      m_PostInfinity: 2
      m_RotationOrder: 4
    attribute: m_LocalPosition.z
    path: Cage/target
    classID: 4
    script: {fileID: 0}
  - curve:
      serializedVersion: 2
      m_Curve:
      - time: 0
        value: 1
        inSlope: Infinity
        outSlope: Infinity
        tangentMode: 31
      - time: 0.73333335
        value: 1
        inSlope: Infinity
        outSlope: Infinity
        tangentMode: 31
      - time: 0.8
        value: 0
        inSlope: Infinity
        outSlope: Infinity
        tangentMode: 31
      m_PreInfinity: 2
      m_PostInfinity: 2
      m_RotationOrder: 4
    attribute: m_IsActive
    path: Cage/target
    classID: 1
    script: {fileID: 0}
  m_EulerEditorCurves: []
  m_HasGenericRootTransform: 0
  m_HasMotionFloatCurves: 0
  m_GenerateMotionCurves: 0
  m_Events: []
