%YAML 1.1
%TAG !u! tag:unity3d.com,2011:
--- !u!74 &7400000
AnimationClip:
  m_ObjectHideFlags: 0
  m_PrefabParentObject: {fileID: 0}
  m_PrefabInternal: {fileID: 0}
  m_Name: SpringCageIdleBroken
  serializedVersion: 6
  m_Legacy: 0
  m_Compressed: 0
  m_UseHighQualityCurve: 1
  m_RotationCurves: []
  m_CompressedRotationCurves: []
  m_EulerCurves: []
  m_PositionCurves: []
  m_ScaleCurves: []
  m_FloatCurves:
  - curve:
      serializedVersion: 2
      m_Curve:
      - time: 0
        value: 0
        inSlope: Infinity
        outSlope: Infinity
        tangentMode: 31
      - time: 0.26666668
        value: 0
        inSlope: Infinity
        outSlope: Infinity
        tangentMode: 31
      m_PreInfinity: 2
      m_PostInfinity: 2
      m_RotationOrder: 4
    attribute: m_IsActive
    path: Cage/target
    classID: 1
    script: {fileID: 0}
  m_PPtrCurves:
  - curve:
    - time: 0
      value: {fileID: 21300044, guid: 2e5df78170de5f84e86a863451484d4c, type: 3}
    - time: 0.06666667
      value: {fileID: 21300046, guid: 2e5df78170de5f84e86a863451484d4c, type: 3}
    - time: 0.13333334
      value: {fileID: 21300024, guid: 2e5df78170de5f84e86a863451484d4c, type: 3}
    - time: 0.2
      value: {fileID: 21300026, guid: 2e5df78170de5f84e86a863451484d4c, type: 3}
    attribute: m_Sprite
    path: 
    classID: 212
    script: {fileID: 0}
  - curve:
    - time: 0
      value: {fileID: 21300028, guid: 2e5df78170de5f84e86a863451484d4c, type: 3}
    - time: 0.06666667
      value: {fileID: 21300030, guid: 2e5df78170de5f84e86a863451484d4c, type: 3}
    - time: 0.13333334
      value: {fileID: 21300032, guid: 2e5df78170de5f84e86a863451484d4c, type: 3}
    - time: 0.2
      value: {fileID: 21300034, guid: 2e5df78170de5f84e86a863451484d4c, type: 3}
    attribute: m_Sprite
    path: Cage
    classID: 212
    script: {fileID: 0}
  m_SampleRate: 15
  m_WrapMode: 0
  m_Bounds:
    m_Center: {x: 0, y: 0, z: 0}
    m_Extent: {x: 0, y: 0, z: 0}
  m_ClipBindingConstant:
    genericBindings:
    - path: 1951999188
      attribute: 2086281974
      script: {fileID: 0}
      classID: 1
      customType: 0
      isPPtrCurve: 0
    - path: 0
      attribute: 0
      script: {fileID: 0}
      classID: 212
      customType: 23
      isPPtrCurve: 1
    - path: 4136952175
      attribute: 0
      script: {fileID: 0}
      classID: 212
      customType: 23
      isPPtrCurve: 1
    pptrCurveMapping:
    - {fileID: 21300044, guid: 2e5df78170de5f84e86a863451484d4c, type: 3}
    - {fileID: 21300046, guid: 2e5df78170de5f84e86a863451484d4c, type: 3}
    - {fileID: 21300024, guid: 2e5df78170de5f84e86a863451484d4c, type: 3}
    - {fileID: 21300026, guid: 2e5df78170de5f84e86a863451484d4c, type: 3}
    - {fileID: 21300028, guid: 2e5df78170de5f84e86a863451484d4c, type: 3}
    - {fileID: 21300030, guid: 2e5df78170de5f84e86a863451484d4c, type: 3}
    - {fileID: 21300032, guid: 2e5df78170de5f84e86a863451484d4c, type: 3}
    - {fileID: 21300034, guid: 2e5df78170de5f84e86a863451484d4c, type: 3}
  m_AnimationClipSettings:
    serializedVersion: 2
    m_AdditiveReferencePoseClip: {fileID: 0}
    m_AdditiveReferencePoseTime: 0
    m_StartTime: 0
    m_StopTime: 0.26666668
    m_OrientationOffsetY: 0
    m_Level: 0
    m_CycleOffset: 0
    m_HasAdditiveReferencePose: 0
    m_LoopTime: 1
    m_LoopBlend: 0
    m_LoopBlendOrientation: 0
    m_LoopBlendPositionY: 0
    m_LoopBlendPositionXZ: 0
    m_KeepOriginalOrientation: 0
    m_KeepOriginalPositionY: 1
    m_KeepOriginalPositionXZ: 0
    m_HeightFromFeet: 0
    m_Mirror: 0
  m_EditorCurves:
  - curve:
      serializedVersion: 2
      m_Curve:
      - time: 0
        value: 0
        inSlope: Infinity
        outSlope: Infinity
        tangentMode: 31
      - time: 0.26666668
        value: 0
        inSlope: Infinity
        outSlope: Infinity
        tangentMode: 31
      m_PreInfinity: 2
      m_PostInfinity: 2
      m_RotationOrder: 4
    attribute: m_IsActive
    path: Cage/target
    classID: 1
    script: {fileID: 0}
  m_EulerEditorCurves: []
  m_HasGenericRootTransform: 0
  m_HasMotionFloatCurves: 0
  m_GenerateMotionCurves: 0
  m_Events: []
