%YAML 1.1
%TAG !u! tag:unity3d.com,2011:
--- !u!74 &7400000
AnimationClip:
  m_ObjectHideFlags: 0
  m_PrefabParentObject: {fileID: 0}
  m_PrefabInternal: {fileID: 0}
  m_Name: Sketchy_WildTake02
  serializedVersion: 6
  m_Legacy: 0
  m_Compressed: 0
  m_UseHighQualityCurve: 1
  m_RotationCurves: []
  m_CompressedRotationCurves: []
  m_EulerCurves: []
  m_PositionCurves: []
  m_ScaleCurves: []
  m_FloatCurves: []
  m_PPtrCurves:
  - curve:
    - time: 0
      value: {fileID: 21300010, guid: 2c42477d82839e4449f9a0f60170b697, type: 3}
    - time: 0.16666667
      value: {fileID: 21300012, guid: 2c42477d82839e4449f9a0f60170b697, type: 3}
    - time: 0.41666666
      value: {fileID: 21300014, guid: 2c42477d82839e4449f9a0f60170b697, type: 3}
    - time: 0.5
      value: {fileID: 21300016, guid: 2c42477d82839e4449f9a0f60170b697, type: 3}
    - time: 0.5833333
      value: {fileID: 21300018, guid: 2c42477d82839e4449f9a0f60170b697, type: 3}
    - time: 0.6666667
      value: {fileID: 21300020, guid: 2c42477d82839e4449f9a0f60170b697, type: 3}
    - time: 0.75
      value: {fileID: 21300022, guid: 2c42477d82839e4449f9a0f60170b697, type: 3}
    - time: 0.8333333
      value: {fileID: 21300024, guid: 2c42477d82839e4449f9a0f60170b697, type: 3}
    - time: 0.9166667
      value: {fileID: 21300026, guid: 2c42477d82839e4449f9a0f60170b697, type: 3}
    - time: 1
      value: {fileID: 21300028, guid: 2c42477d82839e4449f9a0f60170b697, type: 3}
    - time: 1.0833334
      value: {fileID: 21300030, guid: 2c42477d82839e4449f9a0f60170b697, type: 3}
    - time: 1.1666666
      value: {fileID: 21300032, guid: 2c42477d82839e4449f9a0f60170b697, type: 3}
    - time: 1.25
      value: {fileID: 21300034, guid: 2c42477d82839e4449f9a0f60170b697, type: 3}
    - time: 1.3333334
      value: {fileID: 21300036, guid: 2c42477d82839e4449f9a0f60170b697, type: 3}
    - time: 1.4166666
      value: {fileID: 21300038, guid: 2c42477d82839e4449f9a0f60170b697, type: 3}
    - time: 1.5
      value: {fileID: 21300040, guid: 2c42477d82839e4449f9a0f60170b697, type: 3}
    - time: 1.5833334
      value: {fileID: 21300042, guid: 2c42477d82839e4449f9a0f60170b697, type: 3}
    - time: 1.6666666
      value: {fileID: 21300044, guid: 2c42477d82839e4449f9a0f60170b697, type: 3}
    - time: 1.75
      value: {fileID: 21300046, guid: 2c42477d82839e4449f9a0f60170b697, type: 3}
    - time: 1.8333334
      value: {fileID: 21300048, guid: 2c42477d82839e4449f9a0f60170b697, type: 3}
    - time: 1.9166666
      value: {fileID: 21300050, guid: 2c42477d82839e4449f9a0f60170b697, type: 3}
    - time: 2
      value: {fileID: 21300052, guid: 2c42477d82839e4449f9a0f60170b697, type: 3}
    - time: 2.0833333
      value: {fileID: 21300054, guid: 2c42477d82839e4449f9a0f60170b697, type: 3}
    - time: 2.1666667
      value: {fileID: 21300056, guid: 2c42477d82839e4449f9a0f60170b697, type: 3}
    - time: 2.25
      value: {fileID: 21300058, guid: 2c42477d82839e4449f9a0f60170b697, type: 3}
    - time: 2.3333333
      value: {fileID: 21300060, guid: 2c42477d82839e4449f9a0f60170b697, type: 3}
    - time: 2.4166667
      value: {fileID: 21300000, guid: 2c42477d82839e4449f9a0f60170b697, type: 3}
    - time: 2.5
      value: {fileID: 21300004, guid: 2c42477d82839e4449f9a0f60170b697, type: 3}
    - time: 2.5833333
      value: {fileID: 21300008, guid: 2c42477d82839e4449f9a0f60170b697, type: 3}
    - time: 2.6666667
      value: {fileID: 21300016, guid: 2c42477d82839e4449f9a0f60170b697, type: 3}
    - time: 2.75
      value: {fileID: 21300018, guid: 2c42477d82839e4449f9a0f60170b697, type: 3}
    - time: 2.8333333
      value: {fileID: 21300020, guid: 2c42477d82839e4449f9a0f60170b697, type: 3}
    - time: 2.9166667
      value: {fileID: 21300022, guid: 2c42477d82839e4449f9a0f60170b697, type: 3}
    - time: 3
      value: {fileID: 21300024, guid: 2c42477d82839e4449f9a0f60170b697, type: 3}
    - time: 3.0833333
      value: {fileID: 21300026, guid: 2c42477d82839e4449f9a0f60170b697, type: 3}
    - time: 3.1666667
      value: {fileID: 21300028, guid: 2c42477d82839e4449f9a0f60170b697, type: 3}
    - time: 3.25
      value: {fileID: 21300030, guid: 2c42477d82839e4449f9a0f60170b697, type: 3}
    - time: 3.3333333
      value: {fileID: 21300032, guid: 2c42477d82839e4449f9a0f60170b697, type: 3}
    - time: 3.4166667
      value: {fileID: 21300034, guid: 2c42477d82839e4449f9a0f60170b697, type: 3}
    - time: 3.5
      value: {fileID: 21300036, guid: 2c42477d82839e4449f9a0f60170b697, type: 3}
    - time: 3.5833333
      value: {fileID: 21300038, guid: 2c42477d82839e4449f9a0f60170b697, type: 3}
    - time: 3.6666667
      value: {fileID: 21300040, guid: 2c42477d82839e4449f9a0f60170b697, type: 3}
    - time: 3.75
      value: {fileID: 21300042, guid: 2c42477d82839e4449f9a0f60170b697, type: 3}
    - time: 3.8333333
      value: {fileID: 21300044, guid: 2c42477d82839e4449f9a0f60170b697, type: 3}
    - time: 3.9166667
      value: {fileID: 21300046, guid: 2c42477d82839e4449f9a0f60170b697, type: 3}
    - time: 4
      value: {fileID: 21300048, guid: 2c42477d82839e4449f9a0f60170b697, type: 3}
    - time: 4.0833335
      value: {fileID: 21300050, guid: 2c42477d82839e4449f9a0f60170b697, type: 3}
    - time: 4.1666665
      value: {fileID: 21300052, guid: 2c42477d82839e4449f9a0f60170b697, type: 3}
    - time: 4.25
      value: {fileID: 21300054, guid: 2c42477d82839e4449f9a0f60170b697, type: 3}
    - time: 4.3333335
      value: {fileID: 21300056, guid: 2c42477d82839e4449f9a0f60170b697, type: 3}
    - time: 4.4166665
      value: {fileID: 21300058, guid: 2c42477d82839e4449f9a0f60170b697, type: 3}
    - time: 4.5
      value: {fileID: 21300060, guid: 2c42477d82839e4449f9a0f60170b697, type: 3}
    - time: 4.5833335
      value: {fileID: 21300000, guid: 2c42477d82839e4449f9a0f60170b697, type: 3}
    - time: 4.6666665
      value: {fileID: 21300004, guid: 2c42477d82839e4449f9a0f60170b697, type: 3}
    - time: 4.75
      value: {fileID: 21300008, guid: 2c42477d82839e4449f9a0f60170b697, type: 3}
    - time: 4.8333335
      value: {fileID: 21300016, guid: 2c42477d82839e4449f9a0f60170b697, type: 3}
    - time: 4.9166665
      value: {fileID: 21300018, guid: 2c42477d82839e4449f9a0f60170b697, type: 3}
    - time: 5
      value: {fileID: 21300020, guid: 2c42477d82839e4449f9a0f60170b697, type: 3}
    - time: 5.0833335
      value: {fileID: 21300022, guid: 2c42477d82839e4449f9a0f60170b697, type: 3}
    - time: 5.1666665
      value: {fileID: 21300024, guid: 2c42477d82839e4449f9a0f60170b697, type: 3}
    - time: 5.25
      value: {fileID: 21300026, guid: 2c42477d82839e4449f9a0f60170b697, type: 3}
    - time: 5.3333335
      value: {fileID: 21300028, guid: 2c42477d82839e4449f9a0f60170b697, type: 3}
    - time: 5.4166665
      value: {fileID: 21300030, guid: 2c42477d82839e4449f9a0f60170b697, type: 3}
    - time: 5.5
      value: {fileID: 21300032, guid: 2c42477d82839e4449f9a0f60170b697, type: 3}
    - time: 5.5833335
      value: {fileID: 21300034, guid: 2c42477d82839e4449f9a0f60170b697, type: 3}
    - time: 5.6666665
      value: {fileID: 21300036, guid: 2c42477d82839e4449f9a0f60170b697, type: 3}
    - time: 5.75
      value: {fileID: 21300038, guid: 2c42477d82839e4449f9a0f60170b697, type: 3}
    - time: 5.8333335
      value: {fileID: 21300040, guid: 2c42477d82839e4449f9a0f60170b697, type: 3}
    - time: 5.9166665
      value: {fileID: 21300042, guid: 2c42477d82839e4449f9a0f60170b697, type: 3}
    - time: 6
      value: {fileID: 21300044, guid: 2c42477d82839e4449f9a0f60170b697, type: 3}
    - time: 6.0833335
      value: {fileID: 21300046, guid: 2c42477d82839e4449f9a0f60170b697, type: 3}
    - time: 6.1666665
      value: {fileID: 21300048, guid: 2c42477d82839e4449f9a0f60170b697, type: 3}
    - time: 6.25
      value: {fileID: 21300050, guid: 2c42477d82839e4449f9a0f60170b697, type: 3}
    - time: 6.3333335
      value: {fileID: 21300052, guid: 2c42477d82839e4449f9a0f60170b697, type: 3}
    - time: 6.4166665
      value: {fileID: 21300054, guid: 2c42477d82839e4449f9a0f60170b697, type: 3}
    - time: 6.5
      value: {fileID: 21300056, guid: 2c42477d82839e4449f9a0f60170b697, type: 3}
    - time: 6.5833335
      value: {fileID: 21300058, guid: 2c42477d82839e4449f9a0f60170b697, type: 3}
    - time: 6.6666665
      value: {fileID: 21300060, guid: 2c42477d82839e4449f9a0f60170b697, type: 3}
    - time: 6.75
      value: {fileID: 21300000, guid: 2c42477d82839e4449f9a0f60170b697, type: 3}
    - time: 6.8333335
      value: {fileID: 21300004, guid: 2c42477d82839e4449f9a0f60170b697, type: 3}
    - time: 6.9166665
      value: {fileID: 21300008, guid: 2c42477d82839e4449f9a0f60170b697, type: 3}
    - time: 7
      value: {fileID: 21300016, guid: 2c42477d82839e4449f9a0f60170b697, type: 3}
    - time: 7.0833335
      value: {fileID: 21300018, guid: 2c42477d82839e4449f9a0f60170b697, type: 3}
    - time: 7.1666665
      value: {fileID: 21300020, guid: 2c42477d82839e4449f9a0f60170b697, type: 3}
    - time: 7.25
      value: {fileID: 21300022, guid: 2c42477d82839e4449f9a0f60170b697, type: 3}
    - time: 7.3333335
      value: {fileID: 21300024, guid: 2c42477d82839e4449f9a0f60170b697, type: 3}
    - time: 7.4166665
      value: {fileID: 21300026, guid: 2c42477d82839e4449f9a0f60170b697, type: 3}
    - time: 7.5
      value: {fileID: 21300028, guid: 2c42477d82839e4449f9a0f60170b697, type: 3}
    - time: 7.5833335
      value: {fileID: 21300030, guid: 2c42477d82839e4449f9a0f60170b697, type: 3}
    - time: 7.6666665
      value: {fileID: 21300032, guid: 2c42477d82839e4449f9a0f60170b697, type: 3}
    - time: 7.75
      value: {fileID: 21300034, guid: 2c42477d82839e4449f9a0f60170b697, type: 3}
    - time: 7.8333335
      value: {fileID: 21300036, guid: 2c42477d82839e4449f9a0f60170b697, type: 3}
    - time: 7.9166665
      value: {fileID: 21300038, guid: 2c42477d82839e4449f9a0f60170b697, type: 3}
    - time: 8
      value: {fileID: 21300040, guid: 2c42477d82839e4449f9a0f60170b697, type: 3}
    - time: 8.083333
      value: {fileID: 21300042, guid: 2c42477d82839e4449f9a0f60170b697, type: 3}
    - time: 8.166667
      value: {fileID: 21300044, guid: 2c42477d82839e4449f9a0f60170b697, type: 3}
    - time: 8.25
      value: {fileID: 21300046, guid: 2c42477d82839e4449f9a0f60170b697, type: 3}
    - time: 8.333333
      value: {fileID: 21300048, guid: 2c42477d82839e4449f9a0f60170b697, type: 3}
    - time: 8.416667
      value: {fileID: 21300050, guid: 2c42477d82839e4449f9a0f60170b697, type: 3}
    - time: 8.5
      value: {fileID: 21300052, guid: 2c42477d82839e4449f9a0f60170b697, type: 3}
    - time: 8.583333
      value: {fileID: 21300054, guid: 2c42477d82839e4449f9a0f60170b697, type: 3}
    - time: 8.666667
      value: {fileID: 21300056, guid: 2c42477d82839e4449f9a0f60170b697, type: 3}
    - time: 8.75
      value: {fileID: 21300058, guid: 2c42477d82839e4449f9a0f60170b697, type: 3}
    - time: 8.833333
      value: {fileID: 21300060, guid: 2c42477d82839e4449f9a0f60170b697, type: 3}
    - time: 8.916667
      value: {fileID: 21300000, guid: 2c42477d82839e4449f9a0f60170b697, type: 3}
    - time: 9
      value: {fileID: 21300004, guid: 2c42477d82839e4449f9a0f60170b697, type: 3}
    - time: 9.083333
      value: {fileID: 21300008, guid: 2c42477d82839e4449f9a0f60170b697, type: 3}
    - time: 9.166667
      value: {fileID: 21300016, guid: 2c42477d82839e4449f9a0f60170b697, type: 3}
    - time: 9.25
      value: {fileID: 21300018, guid: 2c42477d82839e4449f9a0f60170b697, type: 3}
    - time: 9.333333
      value: {fileID: 21300020, guid: 2c42477d82839e4449f9a0f60170b697, type: 3}
    - time: 9.416667
      value: {fileID: 21300022, guid: 2c42477d82839e4449f9a0f60170b697, type: 3}
    - time: 9.5
      value: {fileID: 21300024, guid: 2c42477d82839e4449f9a0f60170b697, type: 3}
    - time: 9.583333
      value: {fileID: 21300026, guid: 2c42477d82839e4449f9a0f60170b697, type: 3}
    - time: 9.666667
      value: {fileID: 21300028, guid: 2c42477d82839e4449f9a0f60170b697, type: 3}
    - time: 9.75
      value: {fileID: 21300030, guid: 2c42477d82839e4449f9a0f60170b697, type: 3}
    - time: 9.833333
      value: {fileID: 21300032, guid: 2c42477d82839e4449f9a0f60170b697, type: 3}
    - time: 9.916667
      value: {fileID: 21300034, guid: 2c42477d82839e4449f9a0f60170b697, type: 3}
    - time: 10
      value: {fileID: 21300036, guid: 2c42477d82839e4449f9a0f60170b697, type: 3}
    - time: 10.083333
      value: {fileID: 21300038, guid: 2c42477d82839e4449f9a0f60170b697, type: 3}
    - time: 10.166667
      value: {fileID: 21300040, guid: 2c42477d82839e4449f9a0f60170b697, type: 3}
    - time: 10.25
      value: {fileID: 21300042, guid: 2c42477d82839e4449f9a0f60170b697, type: 3}
    - time: 10.333333
      value: {fileID: 21300044, guid: 2c42477d82839e4449f9a0f60170b697, type: 3}
    - time: 10.416667
      value: {fileID: 21300046, guid: 2c42477d82839e4449f9a0f60170b697, type: 3}
    - time: 10.5
      value: {fileID: 21300048, guid: 2c42477d82839e4449f9a0f60170b697, type: 3}
    - time: 10.583333
      value: {fileID: 21300050, guid: 2c42477d82839e4449f9a0f60170b697, type: 3}
    - time: 10.666667
      value: {fileID: 21300052, guid: 2c42477d82839e4449f9a0f60170b697, type: 3}
    - time: 10.75
      value: {fileID: 21300054, guid: 2c42477d82839e4449f9a0f60170b697, type: 3}
    - time: 10.833333
      value: {fileID: 21300056, guid: 2c42477d82839e4449f9a0f60170b697, type: 3}
    - time: 10.916667
      value: {fileID: 21300058, guid: 2c42477d82839e4449f9a0f60170b697, type: 3}
    - time: 11
      value: {fileID: 21300060, guid: 2c42477d82839e4449f9a0f60170b697, type: 3}
    - time: 11.083333
      value: {fileID: 21300000, guid: 2c42477d82839e4449f9a0f60170b697, type: 3}
    - time: 11.166667
      value: {fileID: 21300004, guid: 2c42477d82839e4449f9a0f60170b697, type: 3}
    - time: 11.25
      value: {fileID: 21300008, guid: 2c42477d82839e4449f9a0f60170b697, type: 3}
    - time: 11.333333
      value: {fileID: 21300016, guid: 2c42477d82839e4449f9a0f60170b697, type: 3}
    - time: 11.416667
      value: {fileID: 21300018, guid: 2c42477d82839e4449f9a0f60170b697, type: 3}
    - time: 11.5
      value: {fileID: 21300020, guid: 2c42477d82839e4449f9a0f60170b697, type: 3}
    - time: 11.583333
      value: {fileID: 21300022, guid: 2c42477d82839e4449f9a0f60170b697, type: 3}
    - time: 11.666667
      value: {fileID: 21300024, guid: 2c42477d82839e4449f9a0f60170b697, type: 3}
    - time: 11.75
      value: {fileID: 21300026, guid: 2c42477d82839e4449f9a0f60170b697, type: 3}
    - time: 11.833333
      value: {fileID: 21300028, guid: 2c42477d82839e4449f9a0f60170b697, type: 3}
    - time: 11.916667
      value: {fileID: 21300030, guid: 2c42477d82839e4449f9a0f60170b697, type: 3}
    - time: 12
      value: {fileID: 21300032, guid: 2c42477d82839e4449f9a0f60170b697, type: 3}
    - time: 12.083333
      value: {fileID: 21300034, guid: 2c42477d82839e4449f9a0f60170b697, type: 3}
    - time: 12.166667
      value: {fileID: 21300036, guid: 2c42477d82839e4449f9a0f60170b697, type: 3}
    - time: 12.25
      value: {fileID: 21300038, guid: 2c42477d82839e4449f9a0f60170b697, type: 3}
    - time: 12.333333
      value: {fileID: 21300040, guid: 2c42477d82839e4449f9a0f60170b697, type: 3}
    - time: 12.416667
      value: {fileID: 21300042, guid: 2c42477d82839e4449f9a0f60170b697, type: 3}
    - time: 12.5
      value: {fileID: 21300044, guid: 2c42477d82839e4449f9a0f60170b697, type: 3}
    - time: 12.583333
      value: {fileID: 21300046, guid: 2c42477d82839e4449f9a0f60170b697, type: 3}
    - time: 12.666667
      value: {fileID: 21300048, guid: 2c42477d82839e4449f9a0f60170b697, type: 3}
    - time: 12.75
      value: {fileID: 21300050, guid: 2c42477d82839e4449f9a0f60170b697, type: 3}
    - time: 12.833333
      value: {fileID: 21300052, guid: 2c42477d82839e4449f9a0f60170b697, type: 3}
    - time: 12.916667
      value: {fileID: 21300054, guid: 2c42477d82839e4449f9a0f60170b697, type: 3}
    - time: 13
      value: {fileID: 21300056, guid: 2c42477d82839e4449f9a0f60170b697, type: 3}
    - time: 13.083333
      value: {fileID: 21300058, guid: 2c42477d82839e4449f9a0f60170b697, type: 3}
    - time: 13.166667
      value: {fileID: 21300060, guid: 2c42477d82839e4449f9a0f60170b697, type: 3}
    attribute: m_Sprite
    path: 
    classID: 212
    script: {fileID: 0}
  m_SampleRate: 12
  m_WrapMode: 0
  m_Bounds:
    m_Center: {x: 0, y: 0, z: 0}
    m_Extent: {x: 0, y: 0, z: 0}
  m_ClipBindingConstant:
    genericBindings:
    - path: 0
      attribute: 0
      script: {fileID: 0}
      classID: 212
      customType: 23
      isPPtrCurve: 1
    pptrCurveMapping:
    - {fileID: 21300010, guid: 2c42477d82839e4449f9a0f60170b697, type: 3}
    - {fileID: 21300012, guid: 2c42477d82839e4449f9a0f60170b697, type: 3}
    - {fileID: 21300014, guid: 2c42477d82839e4449f9a0f60170b697, type: 3}
    - {fileID: 21300016, guid: 2c42477d82839e4449f9a0f60170b697, type: 3}
    - {fileID: 21300018, guid: 2c42477d82839e4449f9a0f60170b697, type: 3}
    - {fileID: 21300020, guid: 2c42477d82839e4449f9a0f60170b697, type: 3}
    - {fileID: 21300022, guid: 2c42477d82839e4449f9a0f60170b697, type: 3}
    - {fileID: 21300024, guid: 2c42477d82839e4449f9a0f60170b697, type: 3}
    - {fileID: 21300026, guid: 2c42477d82839e4449f9a0f60170b697, type: 3}
    - {fileID: 21300028, guid: 2c42477d82839e4449f9a0f60170b697, type: 3}
    - {fileID: 21300030, guid: 2c42477d82839e4449f9a0f60170b697, type: 3}
    - {fileID: 21300032, guid: 2c42477d82839e4449f9a0f60170b697, type: 3}
    - {fileID: 21300034, guid: 2c42477d82839e4449f9a0f60170b697, type: 3}
    - {fileID: 21300036, guid: 2c42477d82839e4449f9a0f60170b697, type: 3}
    - {fileID: 21300038, guid: 2c42477d82839e4449f9a0f60170b697, type: 3}
    - {fileID: 21300040, guid: 2c42477d82839e4449f9a0f60170b697, type: 3}
    - {fileID: 21300042, guid: 2c42477d82839e4449f9a0f60170b697, type: 3}
    - {fileID: 21300044, guid: 2c42477d82839e4449f9a0f60170b697, type: 3}
    - {fileID: 21300046, guid: 2c42477d82839e4449f9a0f60170b697, type: 3}
    - {fileID: 21300048, guid: 2c42477d82839e4449f9a0f60170b697, type: 3}
    - {fileID: 21300050, guid: 2c42477d82839e4449f9a0f60170b697, type: 3}
    - {fileID: 21300052, guid: 2c42477d82839e4449f9a0f60170b697, type: 3}
    - {fileID: 21300054, guid: 2c42477d82839e4449f9a0f60170b697, type: 3}
    - {fileID: 21300056, guid: 2c42477d82839e4449f9a0f60170b697, type: 3}
    - {fileID: 21300058, guid: 2c42477d82839e4449f9a0f60170b697, type: 3}
    - {fileID: 21300060, guid: 2c42477d82839e4449f9a0f60170b697, type: 3}
    - {fileID: 21300000, guid: 2c42477d82839e4449f9a0f60170b697, type: 3}
    - {fileID: 21300004, guid: 2c42477d82839e4449f9a0f60170b697, type: 3}
    - {fileID: 21300008, guid: 2c42477d82839e4449f9a0f60170b697, type: 3}
    - {fileID: 21300016, guid: 2c42477d82839e4449f9a0f60170b697, type: 3}
    - {fileID: 21300018, guid: 2c42477d82839e4449f9a0f60170b697, type: 3}
    - {fileID: 21300020, guid: 2c42477d82839e4449f9a0f60170b697, type: 3}
    - {fileID: 21300022, guid: 2c42477d82839e4449f9a0f60170b697, type: 3}
    - {fileID: 21300024, guid: 2c42477d82839e4449f9a0f60170b697, type: 3}
    - {fileID: 21300026, guid: 2c42477d82839e4449f9a0f60170b697, type: 3}
    - {fileID: 21300028, guid: 2c42477d82839e4449f9a0f60170b697, type: 3}
    - {fileID: 21300030, guid: 2c42477d82839e4449f9a0f60170b697, type: 3}
    - {fileID: 21300032, guid: 2c42477d82839e4449f9a0f60170b697, type: 3}
    - {fileID: 21300034, guid: 2c42477d82839e4449f9a0f60170b697, type: 3}
    - {fileID: 21300036, guid: 2c42477d82839e4449f9a0f60170b697, type: 3}
    - {fileID: 21300038, guid: 2c42477d82839e4449f9a0f60170b697, type: 3}
    - {fileID: 21300040, guid: 2c42477d82839e4449f9a0f60170b697, type: 3}
    - {fileID: 21300042, guid: 2c42477d82839e4449f9a0f60170b697, type: 3}
    - {fileID: 21300044, guid: 2c42477d82839e4449f9a0f60170b697, type: 3}
    - {fileID: 21300046, guid: 2c42477d82839e4449f9a0f60170b697, type: 3}
    - {fileID: 21300048, guid: 2c42477d82839e4449f9a0f60170b697, type: 3}
    - {fileID: 21300050, guid: 2c42477d82839e4449f9a0f60170b697, type: 3}
    - {fileID: 21300052, guid: 2c42477d82839e4449f9a0f60170b697, type: 3}
    - {fileID: 21300054, guid: 2c42477d82839e4449f9a0f60170b697, type: 3}
    - {fileID: 21300056, guid: 2c42477d82839e4449f9a0f60170b697, type: 3}
    - {fileID: 21300058, guid: 2c42477d82839e4449f9a0f60170b697, type: 3}
    - {fileID: 21300060, guid: 2c42477d82839e4449f9a0f60170b697, type: 3}
    - {fileID: 21300000, guid: 2c42477d82839e4449f9a0f60170b697, type: 3}
    - {fileID: 21300004, guid: 2c42477d82839e4449f9a0f60170b697, type: 3}
    - {fileID: 21300008, guid: 2c42477d82839e4449f9a0f60170b697, type: 3}
    - {fileID: 21300016, guid: 2c42477d82839e4449f9a0f60170b697, type: 3}
    - {fileID: 21300018, guid: 2c42477d82839e4449f9a0f60170b697, type: 3}
    - {fileID: 21300020, guid: 2c42477d82839e4449f9a0f60170b697, type: 3}
    - {fileID: 21300022, guid: 2c42477d82839e4449f9a0f60170b697, type: 3}
    - {fileID: 21300024, guid: 2c42477d82839e4449f9a0f60170b697, type: 3}
    - {fileID: 21300026, guid: 2c42477d82839e4449f9a0f60170b697, type: 3}
    - {fileID: 21300028, guid: 2c42477d82839e4449f9a0f60170b697, type: 3}
    - {fileID: 21300030, guid: 2c42477d82839e4449f9a0f60170b697, type: 3}
    - {fileID: 21300032, guid: 2c42477d82839e4449f9a0f60170b697, type: 3}
    - {fileID: 21300034, guid: 2c42477d82839e4449f9a0f60170b697, type: 3}
    - {fileID: 21300036, guid: 2c42477d82839e4449f9a0f60170b697, type: 3}
    - {fileID: 21300038, guid: 2c42477d82839e4449f9a0f60170b697, type: 3}
    - {fileID: 21300040, guid: 2c42477d82839e4449f9a0f60170b697, type: 3}
    - {fileID: 21300042, guid: 2c42477d82839e4449f9a0f60170b697, type: 3}
    - {fileID: 21300044, guid: 2c42477d82839e4449f9a0f60170b697, type: 3}
    - {fileID: 21300046, guid: 2c42477d82839e4449f9a0f60170b697, type: 3}
    - {fileID: 21300048, guid: 2c42477d82839e4449f9a0f60170b697, type: 3}
    - {fileID: 21300050, guid: 2c42477d82839e4449f9a0f60170b697, type: 3}
    - {fileID: 21300052, guid: 2c42477d82839e4449f9a0f60170b697, type: 3}
    - {fileID: 21300054, guid: 2c42477d82839e4449f9a0f60170b697, type: 3}
    - {fileID: 21300056, guid: 2c42477d82839e4449f9a0f60170b697, type: 3}
    - {fileID: 21300058, guid: 2c42477d82839e4449f9a0f60170b697, type: 3}
    - {fileID: 21300060, guid: 2c42477d82839e4449f9a0f60170b697, type: 3}
    - {fileID: 21300000, guid: 2c42477d82839e4449f9a0f60170b697, type: 3}
    - {fileID: 21300004, guid: 2c42477d82839e4449f9a0f60170b697, type: 3}
    - {fileID: 21300008, guid: 2c42477d82839e4449f9a0f60170b697, type: 3}
    - {fileID: 21300016, guid: 2c42477d82839e4449f9a0f60170b697, type: 3}
    - {fileID: 21300018, guid: 2c42477d82839e4449f9a0f60170b697, type: 3}
    - {fileID: 21300020, guid: 2c42477d82839e4449f9a0f60170b697, type: 3}
    - {fileID: 21300022, guid: 2c42477d82839e4449f9a0f60170b697, type: 3}
    - {fileID: 21300024, guid: 2c42477d82839e4449f9a0f60170b697, type: 3}
    - {fileID: 21300026, guid: 2c42477d82839e4449f9a0f60170b697, type: 3}
    - {fileID: 21300028, guid: 2c42477d82839e4449f9a0f60170b697, type: 3}
    - {fileID: 21300030, guid: 2c42477d82839e4449f9a0f60170b697, type: 3}
    - {fileID: 21300032, guid: 2c42477d82839e4449f9a0f60170b697, type: 3}
    - {fileID: 21300034, guid: 2c42477d82839e4449f9a0f60170b697, type: 3}
    - {fileID: 21300036, guid: 2c42477d82839e4449f9a0f60170b697, type: 3}
    - {fileID: 21300038, guid: 2c42477d82839e4449f9a0f60170b697, type: 3}
    - {fileID: 21300040, guid: 2c42477d82839e4449f9a0f60170b697, type: 3}
    - {fileID: 21300042, guid: 2c42477d82839e4449f9a0f60170b697, type: 3}
    - {fileID: 21300044, guid: 2c42477d82839e4449f9a0f60170b697, type: 3}
    - {fileID: 21300046, guid: 2c42477d82839e4449f9a0f60170b697, type: 3}
    - {fileID: 21300048, guid: 2c42477d82839e4449f9a0f60170b697, type: 3}
    - {fileID: 21300050, guid: 2c42477d82839e4449f9a0f60170b697, type: 3}
    - {fileID: 21300052, guid: 2c42477d82839e4449f9a0f60170b697, type: 3}
    - {fileID: 21300054, guid: 2c42477d82839e4449f9a0f60170b697, type: 3}
    - {fileID: 21300056, guid: 2c42477d82839e4449f9a0f60170b697, type: 3}
    - {fileID: 21300058, guid: 2c42477d82839e4449f9a0f60170b697, type: 3}
    - {fileID: 21300060, guid: 2c42477d82839e4449f9a0f60170b697, type: 3}
    - {fileID: 21300000, guid: 2c42477d82839e4449f9a0f60170b697, type: 3}
    - {fileID: 21300004, guid: 2c42477d82839e4449f9a0f60170b697, type: 3}
    - {fileID: 21300008, guid: 2c42477d82839e4449f9a0f60170b697, type: 3}
    - {fileID: 21300016, guid: 2c42477d82839e4449f9a0f60170b697, type: 3}
    - {fileID: 21300018, guid: 2c42477d82839e4449f9a0f60170b697, type: 3}
    - {fileID: 21300020, guid: 2c42477d82839e4449f9a0f60170b697, type: 3}
    - {fileID: 21300022, guid: 2c42477d82839e4449f9a0f60170b697, type: 3}
    - {fileID: 21300024, guid: 2c42477d82839e4449f9a0f60170b697, type: 3}
    - {fileID: 21300026, guid: 2c42477d82839e4449f9a0f60170b697, type: 3}
    - {fileID: 21300028, guid: 2c42477d82839e4449f9a0f60170b697, type: 3}
    - {fileID: 21300030, guid: 2c42477d82839e4449f9a0f60170b697, type: 3}
    - {fileID: 21300032, guid: 2c42477d82839e4449f9a0f60170b697, type: 3}
    - {fileID: 21300034, guid: 2c42477d82839e4449f9a0f60170b697, type: 3}
    - {fileID: 21300036, guid: 2c42477d82839e4449f9a0f60170b697, type: 3}
    - {fileID: 21300038, guid: 2c42477d82839e4449f9a0f60170b697, type: 3}
    - {fileID: 21300040, guid: 2c42477d82839e4449f9a0f60170b697, type: 3}
    - {fileID: 21300042, guid: 2c42477d82839e4449f9a0f60170b697, type: 3}
    - {fileID: 21300044, guid: 2c42477d82839e4449f9a0f60170b697, type: 3}
    - {fileID: 21300046, guid: 2c42477d82839e4449f9a0f60170b697, type: 3}
    - {fileID: 21300048, guid: 2c42477d82839e4449f9a0f60170b697, type: 3}
    - {fileID: 21300050, guid: 2c42477d82839e4449f9a0f60170b697, type: 3}
    - {fileID: 21300052, guid: 2c42477d82839e4449f9a0f60170b697, type: 3}
    - {fileID: 21300054, guid: 2c42477d82839e4449f9a0f60170b697, type: 3}
    - {fileID: 21300056, guid: 2c42477d82839e4449f9a0f60170b697, type: 3}
    - {fileID: 21300058, guid: 2c42477d82839e4449f9a0f60170b697, type: 3}
    - {fileID: 21300060, guid: 2c42477d82839e4449f9a0f60170b697, type: 3}
    - {fileID: 21300000, guid: 2c42477d82839e4449f9a0f60170b697, type: 3}
    - {fileID: 21300004, guid: 2c42477d82839e4449f9a0f60170b697, type: 3}
    - {fileID: 21300008, guid: 2c42477d82839e4449f9a0f60170b697, type: 3}
    - {fileID: 21300016, guid: 2c42477d82839e4449f9a0f60170b697, type: 3}
    - {fileID: 21300018, guid: 2c42477d82839e4449f9a0f60170b697, type: 3}
    - {fileID: 21300020, guid: 2c42477d82839e4449f9a0f60170b697, type: 3}
    - {fileID: 21300022, guid: 2c42477d82839e4449f9a0f60170b697, type: 3}
    - {fileID: 21300024, guid: 2c42477d82839e4449f9a0f60170b697, type: 3}
    - {fileID: 21300026, guid: 2c42477d82839e4449f9a0f60170b697, type: 3}
    - {fileID: 21300028, guid: 2c42477d82839e4449f9a0f60170b697, type: 3}
    - {fileID: 21300030, guid: 2c42477d82839e4449f9a0f60170b697, type: 3}
    - {fileID: 21300032, guid: 2c42477d82839e4449f9a0f60170b697, type: 3}
    - {fileID: 21300034, guid: 2c42477d82839e4449f9a0f60170b697, type: 3}
    - {fileID: 21300036, guid: 2c42477d82839e4449f9a0f60170b697, type: 3}
    - {fileID: 21300038, guid: 2c42477d82839e4449f9a0f60170b697, type: 3}
    - {fileID: 21300040, guid: 2c42477d82839e4449f9a0f60170b697, type: 3}
    - {fileID: 21300042, guid: 2c42477d82839e4449f9a0f60170b697, type: 3}
    - {fileID: 21300044, guid: 2c42477d82839e4449f9a0f60170b697, type: 3}
    - {fileID: 21300046, guid: 2c42477d82839e4449f9a0f60170b697, type: 3}
    - {fileID: 21300048, guid: 2c42477d82839e4449f9a0f60170b697, type: 3}
    - {fileID: 21300050, guid: 2c42477d82839e4449f9a0f60170b697, type: 3}
    - {fileID: 21300052, guid: 2c42477d82839e4449f9a0f60170b697, type: 3}
    - {fileID: 21300054, guid: 2c42477d82839e4449f9a0f60170b697, type: 3}
    - {fileID: 21300056, guid: 2c42477d82839e4449f9a0f60170b697, type: 3}
    - {fileID: 21300058, guid: 2c42477d82839e4449f9a0f60170b697, type: 3}
    - {fileID: 21300060, guid: 2c42477d82839e4449f9a0f60170b697, type: 3}
  m_AnimationClipSettings:
    serializedVersion: 2
    m_AdditiveReferencePoseClip: {fileID: 0}
    m_AdditiveReferencePoseTime: 0
    m_StartTime: 0
    m_StopTime: 13.25
    m_OrientationOffsetY: 0
    m_Level: 0
    m_CycleOffset: 0
    m_HasAdditiveReferencePose: 0
    m_LoopTime: 1
    m_LoopBlend: 0
    m_LoopBlendOrientation: 0
    m_LoopBlendPositionY: 0
    m_LoopBlendPositionXZ: 0
    m_KeepOriginalOrientation: 0
    m_KeepOriginalPositionY: 1
    m_KeepOriginalPositionXZ: 0
    m_HeightFromFeet: 0
    m_Mirror: 0
  m_EditorCurves: []
  m_EulerEditorCurves: []
  m_HasGenericRootTransform: 0
  m_HasMotionFloatCurves: 0
  m_GenerateMotionCurves: 0
  m_Events:
  - time: 0.5
    functionName: AudioWildTake2
    data: 
    objectReferenceParameter: {fileID: 0}
    floatParameter: 0
    intParameter: 0
    messageOptions: 0
