%YAML 1.1
%TAG !u! tag:unity3d.com,2011:
--- !u!1 &104344
GameObject:
  m_ObjectHideFlags: 0
  m_PrefabParentObject: {fileID: 0}
  m_PrefabInternal: {fileID: 100100000}
  serializedVersion: 4
  m_Component:
  - 4: {fileID: 428428}
  - 114: {fileID: 11431674}
  m_Layer: 0
  m_Name: SuperCollectible
  m_TagString: Untagged
  m_Icon: {fileID: 0}
  m_NavMeshLayer: 0
  m_StaticEditorFlags: 0
  m_IsActive: 1
--- !u!4 &428428
Transform:
  m_ObjectHideFlags: 1
  m_PrefabParentObject: {fileID: 0}
  m_PrefabInternal: {fileID: 100100000}
  m_GameObject: {fileID: 104344}
  m_LocalRotation: {x: 0, y: 0, z: 0, w: 1}
  m_LocalPosition: {x: 0, y: 0, z: 0}
  m_LocalScale: {x: 1, y: 1, z: 1}
  m_Children: []
  m_Father: {fileID: 0}
  m_RootOrder: 0
--- !u!114 &11431674
MonoBehaviour:
  m_ObjectHideFlags: 1
  m_PrefabParentObject: {fileID: 0}
  m_PrefabInternal: {fileID: 100100000}
  m_GameObject: {fileID: 104344}
  m_Enabled: 1
  m_EditorHideFlags: 0
  m_Script: {fileID: 11500000, guid: d053b2c32f3c9a14b95894ef1724b00b, type: 3}
  m_Name: 
  m_EditorClassIdentifier: 
  item: 4
  itemIcon: {fileID: 21300000, guid: eb5f6e2757c821940b69cf1456f7865a, type: 3}
  audioClip: {fileID: 0}
  collectionEffect: {fileID: 19894690, guid: c549232af502c38429ad1e39b9310c58, type: 2}
  acquisitionDialogue:
    text: You got Super Collectible!
    audio: {fileID: 0}
    avatar: {fileID: 0}
--- !u!1001 &100100000
Prefab:
  m_ObjectHideFlags: 1
  serializedVersion: 2
  m_Modification:
    m_TransformParent: {fileID: 0}
    m_Modifications: []
    m_RemovedComponents: []
  m_ParentPrefab: {fileID: 0}
  m_RootGameObject: {fileID: 104344}
  m_IsPrefabParent: 1
