%YAML 1.1
%TAG !u! tag:unity3d.com,2011:
--- !u!1 &144744
GameObject:
  m_ObjectHideFlags: 0
  m_PrefabParentObject: {fileID: 0}
  m_PrefabInternal: {fileID: 100100000}
  serializedVersion: 4
  m_Component:
  - 4: {fileID: 432198}
  - 114: {fileID: 11423844}
  m_Layer: 0
  m_Name: Rose
  m_TagString: Untagged
  m_Icon: {fileID: 0}
  m_NavMeshLayer: 0
  m_StaticEditorFlags: 0
  m_IsActive: 1
--- !u!4 &432198
Transform:
  m_ObjectHideFlags: 1
  m_PrefabParentObject: {fileID: 0}
  m_PrefabInternal: {fileID: 100100000}
  m_GameObject: {fileID: 144744}
  m_LocalRotation: {x: 0, y: 0, z: 0, w: 1}
  m_LocalPosition: {x: 0, y: 0, z: 0}
  m_LocalScale: {x: 1, y: 1, z: 1}
  m_Children: []
  m_Father: {fileID: 0}
  m_RootOrder: 0
--- !u!114 &11423844
MonoBehaviour:
  m_ObjectHideFlags: 1
  m_PrefabParentObject: {fileID: 0}
  m_PrefabInternal: {fileID: 100100000}
  m_GameObject: {fileID: 144744}
  m_Enabled: 1
  m_EditorHideFlags: 0
  m_Script: {fileID: 11500000, guid: f52a8e93bf256344a8068614ebd34d8f, type: 3}
  m_Name: 
  m_EditorClassIdentifier: 
  avatarName: Rose
  avatarSprite: {fileID: 21300002, guid: d13d238635afd95418bc4a92e1f51ac3, type: 3}
  displayName: 1
--- !u!1001 &100100000
Prefab:
  m_ObjectHideFlags: 1
  serializedVersion: 2
  m_Modification:
    m_TransformParent: {fileID: 0}
    m_Modifications:
    - target: {fileID: 0}
      propertyPath: avatarSprite
      value: 
      objectReference: {fileID: 21300002, guid: d13d238635afd95418bc4a92e1f51ac3,
        type: 3}
    - target: {fileID: 0}
      propertyPath: displayName
      value: 1
      objectReference: {fileID: 0}
    - target: {fileID: 0}
      propertyPath: avatarName
      value: Rose
      objectReference: {fileID: 0}
    m_RemovedComponents: []
  m_ParentPrefab: {fileID: 0}
  m_RootGameObject: {fileID: 144744}
  m_IsPrefabParent: 1
